…
> 
> df_filter_05 <- df_filter_04 %>%
+   mutate(notes = ifelse(step == 0, yes = "Raw data",
+                         ifelse(step == 1, yes = "Panel years between 2000 and 2018",
+                                ifelse(step == 2, yes = "Labour force participant",
+                                       ifelse(step == 3, yes = "Prime age (25 - 54)",
+                                              ifelse(step == 4, yes = "Unemployed or employed with contract type",
+                                                     ifelse(step == 5, yes = "Unemployed or employed with monthly hours $>= 1$",
+                                                            ifelse(step == 6, yes = "Non missing education or gender",
+                                                                   ifelse(step == 7, yes = "Drop observations with hourly wages in the top/bottom 0.005 percentile",
+                                                                          ifelse(step == 8, yes = "Data set A: Must be observable at least 3 times",
+                                                                                 ifelse(step == 9, yes = "Data set B: + always employed",
+                                                                                        no = NA)))))))))))
> df_filter_05
# A tibble: 90 × 5
   country_name  step total obs_diff notes                                      
   <fct>        <dbl> <int> <chr>    <chr>                                      
 1 Australia        0 31951 ""       Raw data                                   
 2 Australia        1 31951 "0\\%"   Panel years between 2000 and 2018          
 3 Australia        2 25609 "-20\\%" Labour force participant                   
 4 Australia        3 17719 "-31\\%" Prime age (25 - 54)                        
 5 Australia        4 16260 "-8\\%"  Unemployed or employed with contract type  
 6 Australia        5 16256 "0\\%"   Unemployed or employed with monthly hours …
 7 Australia        6 16249 "0\\%"   Non missing education or gender            
 8 Australia        7 16031 "-1\\%"  Drop observations with hourly wages in the…
 9 Australia        8 10817 "-33\\%" Data set A: Must be observable at least 3 …
10 Australia        9 10313 "-5\\%"  Data set B: + always employed              
# … with 80 more rows
…
