…
+                                           arrange(country, pid, year) %>%
+                                           group_by(country, pid) %>%
+                                           mutate(event_u_p = ifelse(perm == 1 & lag(unmp,1) == 1 & row_number()>1 & year == lag(year,1,NA)+year_lag, yes = 1, no = 0),
+                                                  event_u_p_yes = max(event_u_p),
+                                                  event_u_p_year = ifelse(event_u_p == 1, yes = year, no = NA),
+                                                  event_u_p_year = min(event_u_p_year, na.rm=TRUE),
+                                                  event_u_p_time = ifelse(event_u_p_yes == 1, yes = year - event_u_p_year, no = 0),
+                                                  event_u_p_time = ifelse(event_u_p_time < -2, yes = NA,
+                                                                          ifelse(event_u_p_time > 4, yes = NA, no = event_u_p_time)),
+                                                  event_u_p_time_pos = ifelse(event_u_p_yes == 1, yes = event_u_p_time + 3, no = 0),
+                                           ) %>%
+                                           ungroup())
> 
> df_sample_u_p %>% filter(event_u_p_yes==1) %>% select(pid,year,unmp,perm,matches("event_u_p"))
# A tibble: 40,382 x 9
      pid  year  unmp  perm event_u_p event_u_p_yes event_u_p_year
    <dbl> <dbl> <dbl> <dbl>     <dbl>         <dbl>          <dbl>
 1 100030  2001     0     1         0             1           2006
 2 100030  2002     0     1         0             1           2006
 3 100030  2003     0     1         0             1           2006
 4 100030  2004     0     1         0             1           2006
 5 100030  2005     1     0         0             1           2006
 6 100030  2006     0     1         1             1           2006
 7 100030  2007     0     1         0             1           2006
 8 100030  2008     0     1         0             1           2006
 9 100030  2009     0     1         0             1           2006
10 100030  2010     0     1         0             1           2006
# … with 40,372 more rows, and 2 more variables: event_u_p_time <dbl>,
#   event_u_p_time_pos <dbl>
…
