…
# … with 8 more variables: emp_status <dbl>, unmp <dbl>, perm <dbl>,
#   temp <dbl>, age <dbl>, edu_cat <dbl>, male <dbl>, unemployment_rate <dbl>
> 
> # generate sequence indicator: 2 years before transition and 3 years after transition 
> df_sample_events <- data.frame()
> event <- c(-2,-1,1,2,3,4)
> for (e in event) {
+         df_test <- df_transition %>%
+                 mutate(eventtime=e)
+         df_sample_events <- rbind(df_sample_events,df_test)
+         rm(df_test)
+ }                
> 
> df_sample_events %>% filter(pid==20096101)
# A tibble: 42 × 10
   country    pid  year trans transseq event_t_p_yes event_p_t_yes event_u_p_yes
   <chr>    <dbl> <dbl> <dbl>    <dbl>         <dbl>         <dbl>         <dbl>
 1 DE      2.01e7  2011     1        1            NA            NA            NA
 2 DE      2.01e7  2012     1        2             1            NA            NA
 3 DE      2.01e7  2014     1        3            NA             1            NA
 4 DE      2.01e7  2015     1        4             1            NA            NA
 5 DE      2.01e7  2016     1        5            NA             1            NA
 6 DE      2.01e7  2017     1        6             1            NA            NA
 7 DE      2.01e7  2018     1        7            NA             1            NA
 8 DE      2.01e7  2011     1        1            NA            NA            NA
 9 DE      2.01e7  2012     1        2             1            NA            NA
10 DE      2.01e7  2014     1        3            NA             1            NA
# … with 32 more rows, and 2 more variables: event_u_t_yes <dbl>,
#   eventtime <dbl>
> 
> df_transition_events <- rbind(df_transition,df_sample_events) %>%
+         arrange(country,pid,transseq,eventtime) %>%
+         mutate(year = year+eventtime) %>%
+         arrange(country,pid,transseq,year) %>%
+         select(-trans)
> 
> df_transition_events %>% filter(pid==20096101) %>% print(n=20)
# A tibble: 49 × 9
   country      pid  year transseq event_t_p_yes event_p_t_yes event_u_p_yes
   <chr>      <dbl> <dbl>    <dbl>         <dbl>         <dbl>         <dbl>
 1 DE      20096101  2009        1            NA            NA            NA
 2 DE      20096101  2010        1            NA            NA            NA
 3 DE      20096101  2011        1            NA            NA            NA
 4 DE      20096101  2012        1            NA            NA            NA
 5 DE      20096101  2013        1            NA            NA            NA
 6 DE      20096101  2014        1            NA            NA            NA
 7 DE      20096101  2015        1            NA            NA            NA
 8 DE      20096101  2010        2             1            NA            NA
 9 DE      20096101  2011        2             1            NA            NA
10 DE      20096101  2012        2             1            NA            NA
11 DE      20096101  2013        2             1            NA            NA
12 DE      20096101  2014        2             1            NA            NA
13 DE      20096101  2015        2             1            NA            NA
14 DE      20096101  2016        2             1            NA            NA
15 DE      20096101  2012        3            NA             1            NA
16 DE      20096101  2013        3            NA             1            NA
17 DE      20096101  2014        3            NA             1            NA
18 DE      20096101  2015        3            NA             1            NA
19 DE      20096101  2016        3            NA             1            NA
20 DE      20096101  2017        3            NA             1            NA
# … with 29 more rows, and 2 more variables: event_u_t_yes <dbl>,
#   eventtime <dbl>
…
+                                                  event_u_p_step = ifelse(is.na(event_u_p_step),0,event_u_p_step), # recode missing to 0
+                                                  event_u_p_year = ifelse(event_u_p == 1, yes = year, no = NA),
+                                                  event_u_p_year = min(event_u_p_year, na.rm=TRUE),
+                                                  event_u_p_time = ifelse(event_u_p_yes == 1, yes = year - event_u_p_year, no = NA),
+                                                  event_u_p_drop_01 = ifelse(event_u_p_yes==1 & year > event_u_p_year, yes = 0, no = 1), # keep if observable after treatment
+                                                  event_u_p_drop_01 = last(event_u_p_drop_01),
+                                                  event_u_p_drop_02 = ifelse(event_u_p_yes==1 & year > event_u_p_year & event_u_p_time > 0 & unmp == 1, yes = 1, no = 0), # keep employed observations after treatment event
+                                                  event_u_p_time = ifelse(event_u_p_time < -3, yes = -3,
+                                                                          ifelse(event_u_p_time > 4, yes = 4, no = event_u_p_time)),
+                                                  event_u_p_time_pos = ifelse(event_u_p_yes == 1, yes = event_u_p_time + 3, no = 0),
+                                           ) %>%
+                                           ungroup())
> 
> df_sample_u_p %>% filter(event_u_p_yes==1) %>% select(pid,year,unmp,perm,matches("event_u_p"))
# A tibble: 30,483 × 12
      pid  year  unmp  perm event_u_p_yes event_u_p event_u_p_step
    <dbl> <dbl> <dbl> <dbl>         <dbl>     <dbl>          <dbl>
 1 100030  2004     0     1             1         0              0
 2 100030  2005     1     0             1         0              0
 3 100030  2006     0     1             1         1              1
 4 100030  2007     0     1             1         0              1
 5 100030  2008     0     1             1         0              1
 6 100030  2009     0     1             1         0              1
 7 100030  2010     0     1             1         0              1
 8 100039  2001     1     0             1         0              0
 9 100039  2002     0     1             1         1              1
10 100039  2003     0     1             1         0              1
# … with 30,473 more rows, and 5 more variables: event_u_p_year <dbl>,
#   event_u_p_time <dbl>, event_u_p_drop_01 <dbl>, event_u_p_drop_02 <dbl>,
#   event_u_p_time_pos <dbl>
…
